Tilbudsavis - ChatGPT Prompts
…
            Tilbudsavis - ChatGPT Prompts

Tilbudsavis - ChatGPT Prompts

Christian Kruse

2024-03-28

1 Pushoverr eTilbudsavis

This report was compiled Thursday Mar 28th 2024 01:23 CET.

## # A tibble: 1,131 × 12
##    heading        descr…¹ run_from   run_till   price images name  size  name_…²
##    <chr>          <chr>   <date>     <date>     <dbl> <chr>  <chr> <chr> <chr>  
##  1 Cheasy skyr    "1 kg.… 2024-03-27 2024-04-03  19   <img … C     1 kg  365dis…
##  2 Thise dansk ø… "400 g… 2024-03-21 2024-03-30  15   <img … SB    400 g SuperB…
##  3 Thise dansk ø… "400 g… 2024-03-21 2024-03-30  15   <img … K     400 g Kvickly
##  4 Egelykke skyr  ""      2024-03-22 2024-03-29  20   <img … N     1000… Netto  
##  5 Cheasy skyr y… "Note:… 2024-03-21 2024-03-30  24.0 <img … F     1 l   føtex  
##  6 STAY STRONG S… "PR. S… 2024-03-21 2024-03-30  15   <img … M     500 g MENY   
##  7 Cheasy skyr    "1000 … 2024-03-21 2024-03-30  22   <img … B     1000… Bilka  
##  8 Gourmet Stone… "Gourm… 2024-02-29 2024-03-31 130.  <img … Sinn… 1 pcs Sinner…
##  9 Gourmet Stone… "Gourm… 2024-02-07 2024-12-31 130.  <img … Sinn… 1 pcs Sinner…
## 10 ERGONOMISKE H… "Skaft… 2024-03-23 2024-03-30  99   <img … jem … 1 pcs jem & …
## # … with 1,121 more rows, 3 more variables: keyword <chr>,
## #   size_converted <dbl>, price_per_kg <dbl>, and abbreviated variable names
## #   ¹​description, ²​name_full
